<?xml version="1.0" standalone="no"?>
<!DOCTYPE svg PUBLIC "-//W3C//DTD SVG 20010904//EN"
 "http://www.w3.org/TR/2001/REC-SVG-20010904/DTD/svg10.dtd">
<svg version="1.0" xmlns="http://www.w3.org/2000/svg"
 width="314.000000pt" height="120.000000pt" viewBox="0 0 314.000000 120.000000"
 preserveAspectRatio="xMidYMid meet">

<g transform="translate(0.000000,120.000000) scale(0.100000,-0.100000)"
fill="#000000" stroke="none">
<path d="M1530 1165 l0 -35 805 0 805 0 0 35 0 35 -805 0 -805 0 0 -35z"/>
<path d="M362 895 c-55 -24 -62 -56 -62 -292 0 -282 11 -303 157 -303 66 0 76
3 105 29 l33 29 3 231 c3 254 -1 276 -58 306 -37 19 -134 19 -178 0z m140 -72
c16 -15 18 -35 18 -219 0 -228 -2 -234 -70 -234 -66 0 -70 14 -70 235 0 219 5
235 67 235 20 0 45 -7 55 -17z"/>
<path d="M1900 605 l0 -305 40 0 40 0 0 305 0 305 -40 0 -40 0 0 -305z"/>
<path d="M2163 891 c-45 -28 -53 -49 -53 -139 0 -96 12 -115 106 -168 35 -19
73 -47 84 -61 26 -33 27 -102 2 -134 -33 -40 -112 -24 -112 22 0 15 -8 19 -40
19 -36 0 -40 -2 -40 -25 0 -38 25 -79 55 -93 42 -19 145 -15 182 8 39 23 48
52 48 147 0 91 -15 112 -121 174 -86 51 -99 73 -88 141 7 47 23 60 71 56 30
-2 41 -9 51 -30 11 -23 20 -28 48 -28 31 0 34 2 34 30 0 19 -11 42 -29 62 -26
29 -35 33 -97 36 -56 2 -75 -1 -101 -17z"/>
<path d="M2520 605 l0 -305 40 0 39 0 3 148 3 147 75 -147 75 -148 42 0 42 0
-78 150 -78 151 73 142 c40 78 74 145 74 150 0 4 -17 7 -38 7 l-37 0 -77 -147
-78 -148 0 153 0 152 -40 0 -40 0 0 -305z"/>
<path d="M730 600 l0 -300 84 0 c110 0 141 7 176 40 29 28 30 30 30 129 0 95
-2 104 -24 126 -19 19 -22 27 -12 32 25 15 36 52 36 123 0 80 -17 121 -57 139
-13 6 -71 11 -128 11 l-105 0 0 -300z m195 220 c19 -16 21 -140 3 -158 -7 -7
-36 -12 -65 -12 l-53 0 0 96 0 97 50 -5 c27 -3 56 -11 65 -18z m1 -254 c16
-12 19 -27 19 -91 0 -91 -12 -105 -87 -105 l-48 0 0 105 0 105 48 0 c27 0 57
-6 68 -14z"/>
<path d="M1150 600 l0 -300 130 0 130 0 0 35 0 35 -90 0 -90 0 0 100 0 100 65
0 65 0 0 35 0 34 -62 3 -63 3 0 95 0 95 83 3 82 3 0 29 0 30 -125 0 -125 0 0
-300z"/>
<path d="M1530 600 l0 -300 130 0 130 0 0 35 0 35 -90 0 -90 0 0 265 0 265
-40 0 -40 0 0 -300z"/>
<path d="M0 40 l0 -40 300 0 300 0 0 40 0 40 -300 0 -300 0 0 -40z"/>
</g>
</svg>
