<?xml version="1.0" encoding="UTF-8" standalone="no"?>
<svg
   xmlns:dc="http://purl.org/dc/elements/1.1/"
   xmlns:cc="http://creativecommons.org/ns#"
   xmlns:rdf="http://www.w3.org/1999/02/22-rdf-syntax-ns#"
   xmlns:svg="http://www.w3.org/2000/svg"
   xmlns="http://www.w3.org/2000/svg"
   xmlns:sodipodi="http://sodipodi.sourceforge.net/DTD/sodipodi-0.dtd"
   xmlns:inkscape="http://www.inkscape.org/namespaces/inkscape"
   version="1.1"
   id="svg10"
   width="220"
   height="220"
   viewBox="0 0 220 220"
   sodipodi:docname="vdab.svg"
   inkscape:version="1.0.1 (3bc2e813f5, 2020-09-07)">
  <metadata
     id="metadata16">
    <rdf:RDF>
      <cc:Work
         rdf:about="">
        <dc:format>image/svg+xml</dc:format>
        <dc:type
           rdf:resource="http://purl.org/dc/dcmitype/StillImage" />
        <dc:title></dc:title>
      </cc:Work>
    </rdf:RDF>
  </metadata>
  <defs
     id="defs14">
    <filter
       inkscape:label="Sharpen More"
       inkscape:menu="Image Effects"
       inkscape:menu-tooltip="Sharpen edges and boundaries within the object, force=0.3"
       style="color-interpolation-filters:sRGB;"
       id="filter848">
      <feConvolveMatrix
         targetY="1"
         targetX="1"
         in="SourceGraphic"
         divisor="1"
         kernelMatrix="0 -0.3 0 -0.3 2.2 -0.3 0 -0.3 0"
         order="3 3"
         result="result1"
         id="feConvolveMatrix844" />
      <feBlend
         in2="SourceGraphic"
         mode="normal"
         result="result2"
         id="feBlend846" />
    </filter>
  </defs>
  <sodipodi:namedview
     pagecolor="#ffffff"
     bordercolor="#666666"
     borderopacity="1"
     objecttolerance="10"
     gridtolerance="10"
     guidetolerance="10"
     inkscape:pageopacity="0"
     inkscape:pageshadow="2"
     inkscape:window-width="1920"
     inkscape:window-height="1017"
     id="namedview12"
     showgrid="false"
     inkscape:pagecheckerboard="true"
     inkscape:zoom="3.7590909"
     inkscape:cx="46.819831"
     inkscape:cy="110"
     inkscape:window-x="-8"
     inkscape:window-y="-8"
     inkscape:window-maximized="1"
     inkscape:current-layer="g22"
     inkscape:document-rotation="0" />
  <g
     inkscape:groupmode="layer"
     inkscape:label="Image"
     id="g18"
     style="display:inline">
    <g
       id="g22"
       style="display:inline"
       inkscape:groupmode="layer">
      <path
         style="display:inline;fill:#000080;fill-opacity:1"
         d="M 93.741838,217.44306 C 81.405158,215.52282 72.546311,212.68347 61.25414,207.03041 49.241989,201.01692 40.791818,194.69413 30.998228,184.39161 22.011751,174.93814 17.284536,167.98873 11.47958,155.69754 0.75731127,132.9946 -1.490934,106.83539 5.084046,81.282997 7.6500041,71.310894 16.401982,53.350254 22.764261,45 28.993137,36.824833 41.717272,24.67517 49.302463,19.65995 81.018418,-1.3101837 121.95295,-4.4575059 155.69754,11.47958 c 5.05864,2.389126 11.80864,6.070292 15,8.18037 7.58519,5.01522 20.30932,17.164883 26.5382,25.34005 6.3688,8.358818 15.11499,26.313886 17.68744,36.310598 6.85601,26.642852 4.39798,52.045062 -7.37241,76.189402 -6.35614,13.03821 -12.43626,21.30857 -23.15916,31.50177 -17.31925,16.4637 -37.80494,25.9788 -62.36538,28.96719 -10.73705,1.30642 -17.29598,1.18447 -28.284392,-0.5259 z M 140.50038,135.25 140.66576,133 h -27.71625 c -26.599785,0 -27.736705,0.0782 -28.224117,1.9421 -0.279328,1.06815 -0.249838,2.20012 0.06553,2.51549 0.315372,0.31538 12.941805,0.45393 28.058747,0.30791 L 140.33501,137.5 Z m -61.708516,-24 5.072982,-14.75 0.06758,14.84653 0.06758,14.84653 9.429066,-0.34653 c 10.154308,-0.37318 12.695078,-1.45342 17.009148,-7.23165 2.90657,-3.89303 2.89007,-13.35035 -0.0302,-17.29155 C 105.68203,94.945 102.92936,94 89.076082,94 H 76.447931 l -3.473965,10.4809 C 71.063284,110.24539 69.275,114.96179 69,114.96179 c -0.275,0 -2.063284,-4.7164 -3.973966,-10.48089 L 61.552069,94 H 57.47042 53.38877 l 5.415426,16 5.415426,16 h 4.749631 4.74963 z M 92,110.11129 V 101 l 2.75,0.004 c 3.841348,0.005 9.07381,3.44609 9.83157,6.46524 1.47361,5.87134 -1.62191,9.75085 -8.83157,11.06833 L 92,119.22284 v -9.11129 z M 119.5,123 c 0.64935,-2.95647 0.75283,-3 7.13147,-3 6.32867,0 6.49642,0.0684 7.54521,3.07699 l 1.07265,3.07699 12.85545,-0.32699 c 12.46131,-0.31696 12.93884,-0.41047 15.57534,-3.04972 3.42718,-3.43076 3.68634,-8.6885 0.59148,-11.99993 -1.89277,-2.02523 -1.97027,-2.49223 -0.7,-4.21847 1.51025,-2.05235 1.83972,-5.32341 0.80722,-8.014068 -1.14912,-2.994552 -5.94891,-4.544707 -14.07916,-4.547044 l -7.79966,-0.0022 0.31357,9.287212 c 0.17247,5.10797 0.17247,11.52148 0,14.25225 -0.3133,4.96071 -0.31786,4.95266 -5.2556,-9.28498 L 132.61594,94 h -5.72529 -5.72529 l -3.72276,11.25 c -2.04751,6.1875 -4.55315,13.3875 -5.56808,16 l -1.84534,4.75 h 4.40596 c 4.08241,0 4.45434,-0.2203 5.06486,-3 z m 30.5,-6.4425 c 0,-3.35006 0.18951,-3.55661 3.25,-3.54219 4.35328,0.0205 5.99387,1.2237 5.58749,4.09778 -0.28681,2.02848 -0.97569,2.43309 -4.58749,2.69441 L 150,120.115 Z m -27,-3.84589 c 0,-0.15861 0.86821,-2.74611 1.92935,-5.75 1.1721,-3.31797 2.14678,-4.87287 2.48333,-3.96161 0.30469,0.825 1.21652,3.4125 2.02629,5.75 l 1.47231,4.25 h -3.95564 C 124.78004,113 123,112.87023 123,112.71161 Z m 27,-10.15124 C 150,99.507903 150.32937,99 152.30887,99 c 3.22655,0 5.97792,2.26705 5.54155,4.5661 -0.27113,1.42849 -1.3449,2.01501 -4.10874,2.24427 -3.67974,0.30522 -3.74168,0.25142 -3.74168,-3.25 z M 140,84.5 V 82 H 112.5 85 v 2.5 2.5 h 27.5 27.5 z"
         id="path24"
         sodipodi:insensitive="true" />
      <path
         style="fill:#000080;stroke-width:0.266022"
         d="M 104.16752,218.53662 C 96.710005,217.9555 87.43169,216.36999 80.756422,214.53605 67.830581,210.98484 53.331631,203.55418 42.563482,194.96231 35.979383,189.70887 26.038723,179.22772 21.147688,172.3821 17.111061,166.73233 12.071092,157.2155 8.9614821,149.37122 2.1461788,132.17899 -0.01322608,113.18554 2.6857351,94.171705 4.3216517,82.646881 6.8264233,74.685036 12.478291,63.044381 18.856365,49.908024 23.123124,43.812516 32.587666,34.316049 c 10.03586,-10.06971 16.639654,-15.0794 26.873,-20.38606 31.093688,-16.1241179 67.995874,-16.4973486 98.877834,-1.000056 3.66154,1.837447 9.51835,5.095666 11.78242,6.554715 8.51022,5.484293 23.23882,19.901372 28.83702,28.227082 4.08724,6.078602 9.69779,16.989772 12.90764,25.102282 1.96086,4.955818 3.23848,9.34162 4.40356,15.116519 5.05769,25.069109 1.72532,48.778309 -10.1125,71.948549 -5.14506,10.07046 -10.06747,16.97401 -17.77589,24.93019 -15.21049,15.6994 -32.0502,25.48583 -52.51801,30.52093 -9.86631,2.42712 -23.7159,3.8282 -31.69522,3.20642 z m 36.19971,-80.95544 c 0.0448,-0.0448 0.16145,-1.12142 0.25915,-2.39241 l 0.17762,-2.3109 -23.78168,0.009 c -25.466753,0.0101 -30.497897,0.16988 -31.615537,1.00432 -0.740653,0.55297 -1.22323,2.09528 -0.970575,3.10194 0.146099,0.5821 0.330141,0.65918 1.823244,0.76357 1.810914,0.12661 53.974848,-0.043 54.107778,-0.17591 z m -61.624787,-25.69889 4.921402,-14.339206 0.06882,14.380456 0.06881,14.38046 5.650654,-0.18122 c 12.396231,-0.39757 15.183711,-1.07103 18.628721,-4.50073 3.43399,-3.41874 4.56695,-6.30325 4.56483,-11.62205 -0.002,-4.71523 -0.81262,-7.22811 -3.3334,-10.331692 C 106.6939,96.44456 103.96619,94.974 99.35913,94.302377 98.334946,94.15307 92.756743,93.954131 86.963122,93.860289 l -10.533856,-0.170621 -2.669818,7.955652 c -1.468403,4.37561 -3.123074,9.13469 -3.677054,10.57574 -0.942212,2.45097 -1.028273,2.57976 -1.333211,1.99517 -0.544424,-1.04372 -3.682063,-9.88637 -5.436926,-15.322639 l -1.65307,-5.120919 h -4.227418 c -2.325078,0 -4.227416,0.03975 -4.227416,0.08834 0,0.114049 7.226859,21.478018 9.35137,27.644438 l 1.626832,4.72189 4.819243,-0.003 4.819242,-0.003 4.921403,-14.33921 z m 39.537717,13.86626 c 0.6041,-0.3233 0.89732,-0.94839 1.55065,-3.30566 0.27951,-1.00847 0.62258,-1.63778 1.01516,-1.86215 0.66669,-0.38103 9.88623,-0.49266 11.16397,-0.13516 0.92271,0.25816 1.44732,1.06492 2.35008,3.61401 l 0.72059,2.03473 7.54434,-0.076 c 9.60104,-0.0967 16.19346,-0.46042 17.98377,-0.99229 1.01315,-0.30099 1.78199,-0.79374 2.81049,-1.80122 3.78297,-3.7057 4.13323,-8.81662 0.86647,-12.64372 -1.61156,-1.888 -1.67687,-2.21877 -0.73389,-3.71711 1.11574,-1.77283 1.4865,-3.10317 1.46243,-5.24723 -0.0437,-3.89175 -1.70108,-5.747457 -6.16666,-6.904603 -2.08691,-0.540772 -7.20025,-0.921699 -12.50733,-0.931755 l -4.09508,-0.0078 0.16349,2.061669 c 0.28934,3.648741 0.47438,19.277069 0.25676,21.686509 -0.35751,3.95845 -0.2231,4.22307 -5.44147,-10.71311 -1.91694,-5.4867 -3.71991,-10.664149 -4.00662,-11.505443 l -0.52129,-1.529625 h -5.80312 -5.80311 l -3.75837,11.239418 c -2.06711,6.18168 -4.59224,13.45184 -5.61141,16.1559 -1.01916,2.70407 -1.85302,4.96489 -1.85302,5.02406 0,0.24692 7.90138,-0.1696 8.41317,-0.4435 z M 140.19347,84.46191 V 81.801693 H 112.52721 84.860943 v 2.660217 2.660218 h 27.666267 27.66626 z"
         id="path9" />
      <path
         style="fill:#004475;fill-opacity:1;stroke-width:0.266022"
         d="m 102.95042,218.64361 c -6.738496,-0.52275 -16.24788,-2.11558 -21.54776,-3.60927 -2.523868,-0.71131 -8.937262,-2.87727 -11.337278,-3.82888 -4.477662,-1.7754 -13.423988,-6.25143 -17.085937,-8.54845 -1.836886,-1.15222 -5.976575,-3.88872 -6.159614,-4.07176 -0.07316,-0.0732 -0.551995,-0.42695 -1.064087,-0.78621 -1.139906,-0.7997 -0.878181,-0.59346 -4.256349,-3.35396 -4.099759,-3.35014 -11.090952,-10.31368 -16.007788,-15.94448 -1.600003,-1.83233 -5.554657,-7.16981 -6.602885,-8.91172 -0.220115,-0.36578 -0.639629,-1.06352 -0.932253,-1.55052 -0.292624,-0.487 -0.92603,-1.50454 -1.407568,-2.26119 -1.345488,-2.11418 -6.24029,-12.18028 -7.5895857,-15.60788 C 5.0106625,140.13855 2.6184087,130.02807 1.6137545,119.12445 1.3016513,115.73716 1.4595146,101.85323 1.8490771,98.428053 3.1868409,86.665927 5.5145753,77.795229 9.8416608,67.969338 13.327428,60.0539 20.157196,47.795159 22.790105,44.728197 c 0.268463,-0.312722 0.767742,-0.927713 1.109509,-1.366649 2.26704,-2.911593 12.495606,-13.387684 15.979297,-16.365989 3.571105,-3.053037 3.885247,-3.323201 4.01468,-3.452633 1.063787,-1.063787 7.556051,-5.577384 9.04474,-6.288149 0.219468,-0.104783 0.877872,-0.489562 1.46312,-0.855063 1.858066,-1.160409 4.155731,-2.386951 7.714631,-4.118233 2.973142,-1.446331 4.481919,-2.105757 7.781137,-3.4008213 0.329202,-0.1292238 0.867896,-0.3460605 1.197098,-0.4818591 5.648767,-2.3301634 18.25701,-5.426397 25.471584,-6.2551133 0.804716,-0.092435 1.941959,-0.2292757 2.527207,-0.30409 5.114582,-0.6538148 16.475892,-0.6415276 22.212822,0.024023 0.51209,0.059409 1.58948,0.1824536 2.39419,0.2734334 6.06312,0.6854855 13.89809,2.4614471 20.40751,4.6257928 6.8945,2.292383 12.61149,4.8852625 22.02296,9.9882785 1.97663,1.071754 6.70048,4.099859 7.3367,4.70301 0.20865,0.197807 0.92692,0.778634 1.59615,1.290726 3.77544,2.888963 9.80026,8.431706 14.4378,13.282568 0.89947,0.940844 1.93467,2.023795 2.30045,2.406558 0.36578,0.382765 1.32163,1.468488 2.12412,2.412716 0.80248,0.944228 1.59199,1.836489 1.75447,1.982801 0.46924,0.422554 2.54063,3.278354 3.95554,5.453446 2.20043,3.382635 2.89279,4.533458 4.72137,7.847642 1.08045,1.958253 5.53398,10.977061 5.53398,11.206819 0,0.108433 0.21925,0.683857 0.48722,1.278721 1.20601,2.677225 1.48595,3.359635 2.35338,5.736951 1.81553,4.975719 2.51227,7.363869 3.40652,11.676177 0.70412,3.395505 1.60198,8.725267 1.86463,11.068684 0.082,0.73156 0.20023,1.689239 0.26275,2.128174 0.6368,4.470852 0.64576,15.750512 0.0172,21.680772 -1.07842,10.17495 -4.03187,21.72218 -7.72263,30.19347 -0.19123,0.43894 -0.62257,1.45647 -0.95852,2.26119 -0.49277,1.18034 -2.96937,6.14942 -5.76748,11.57194 -0.62761,1.21627 -5.57708,8.88255 -5.92529,9.17776 -0.0863,0.0731 -0.52547,0.6717 -0.97594,1.3301 -0.76965,1.12491 -1.31489,1.7808 -5.08634,6.11851 -2.82503,3.24918 -9.8121,10.00095 -13.2493,12.8031 -5.63617,4.59484 -11.30241,8.36574 -18.31928,12.19154 -1.74864,0.95342 -7.50856,3.54345 -10.24183,4.6054 -14.84049,5.76592 -32.67991,8.60127 -47.08586,7.48371 z m 37.1524,-81.33007 c 0.0751,-0.0751 0.20254,-1.05313 0.28317,-2.17338 l 0.14659,-2.03681 -26.57222,0.10154 c -28.146894,0.10756 -27.861546,0.0943 -28.857943,1.33556 -0.232969,0.29021 -0.443153,1.04511 -0.467076,1.67757 -0.04311,1.13984 -0.03474,1.15098 0.955625,1.27071 1.369421,0.16555 54.341354,-0.005 54.511854,-0.17519 z M 74.033724,124.6977 c 0.234584,-0.69498 1.088378,-3.17896 1.897321,-5.51995 2.748962,-7.9552 5.215013,-15.15335 6.44799,-18.82104 0.676309,-2.011789 1.331846,-3.657798 1.456748,-3.657798 0.124903,0 0.227095,6.601118 0.227095,14.669158 v 14.66916 l 5.918984,-0.185 c 7.023768,-0.21953 8.805041,-0.35822 11.106408,-0.86476 1.5004,-0.33025 2.35086,-0.52761 2.59371,-0.60194 0.0366,-0.0112 0.14291,-0.0101 0.23628,0.002 0.0934,0.0125 0.24301,-0.0773 0.33253,-0.19951 0.0895,-0.12224 0.59873,-0.44362 1.13159,-0.71419 1.14247,-0.58012 2.97838,-2.27011 4.08943,-3.7644 0.43515,-0.58525 0.86494,-1.12394 0.9551,-1.1971 0.97394,-0.79034 2.07217,-5.54145 2.03753,-8.81473 -0.0419,-3.95747 -1.04026,-7.00886 -3.12949,-9.56469 -1.04976,-1.284196 -2.6133,-2.902345 -2.8044,-2.902345 -0.0696,0 -0.61467,-0.353662 -1.21138,-0.785916 -2.48107,-1.797283 -6.626268,-2.299447 -19.527151,-2.365598 l -9.310761,-0.04774 -1.553522,4.858393 c -3.127155,9.779696 -5.488093,16.164316 -5.97732,16.164316 -0.306458,0 -1.43078,-3.0197 -4.605704,-12.37001 -1.589781,-4.681981 -2.891226,-8.542622 -2.892099,-8.5792 -8.72e-4,-0.03658 -1.737377,-0.0665 -3.858901,-0.0665 -2.908748,0 -3.857204,0.08177 -3.85686,0.332527 2.52e-4,0.18289 1.205004,3.863966 2.677229,8.180173 1.472226,4.3162 3.737715,11.01995 5.03442,14.89722 1.296704,3.87727 2.483183,7.37878 2.636621,7.78114 l 0.278977,0.73156 h 4.621554 4.621556 z m 44.442666,0.38971 c 0.29965,-0.40136 0.73117,-1.46444 0.95893,-2.36239 0.67768,-2.6718 0.87507,-2.7492 7.0109,-2.7492 3.6471,0 5.34043,0.10085 5.93945,0.35375 0.81842,0.34553 1.20847,1.054 2.7894,5.06649 l 0.24895,0.63185 7.77167,-0.17695 c 12.99588,-0.29589 16.16198,-0.49701 17.65689,-1.12162 1.34739,-0.56298 3.98226,-3.2717 4.67756,-4.80869 0.40174,-0.88804 0.59635,-1.90163 0.6413,-3.34001 0.0752,-2.40715 -0.51595,-4.00097 -2.21723,-5.97774 -1.72818,-2.00801 -1.7279,-1.73196 -0.005,-4.99226 0.79016,-1.49526 1.09209,-3.99572 0.68161,-5.644941 -0.13766,-0.553081 -0.27869,-1.129135 -0.31341,-1.280121 -0.21534,-0.936548 -1.4969,-2.133774 -3.02646,-2.827314 -2.78461,-1.2626 -5.12271,-1.595989 -12.25744,-1.747779 l -6.45624,-0.137355 0.20091,4.754669 c 0.26294,6.222841 0.25872,19.643171 -0.007,20.915491 -0.11441,0.54867 -0.30348,0.99758 -0.42016,0.99758 -0.45545,0 -2.22689,-4.33614 -4.02106,-9.8428 -0.26219,-0.80472 -1.04903,-3.07921 -1.74854,-5.05442 -0.6995,-1.97521 -1.88807,-5.38694 -2.64126,-7.581619 l -1.36943,-3.990326 h -5.6454 -5.64539 l -3.5497,10.507855 c -4.73943,14.02972 -5.28303,15.58132 -6.29097,17.95647 -0.12418,0.29263 -0.4622,1.17297 -0.75117,1.95632 l -0.52539,1.42427 3.88423,-0.0997 c 3.87601,-0.0995 3.88537,-0.10127 4.42905,-0.82947 z m 21.45106,-40.6255 V 82.067715 H 112.52721 85.126965 v 2.394195 2.394196 h 27.400245 27.40024 z"
         id="path11" />
      <path
         style="fill:#004475;fill-opacity:1;stroke-width:0.266022"
         d="m 91.840522,110.19952 0.07,-9.11125 1.862152,-0.0807 c 1.024184,-0.0444 2.400847,0.0474 3.059251,0.20413 3.298025,0.78483 7.009495,3.61347 7.680695,5.85373 1.05206,3.51147 0.52223,6.23171 -1.61242,8.27839 -1.47428,1.41352 -2.926459,2.21519 -5.072271,2.80011 -1.241227,0.33834 -5.326743,1.14923 -5.854394,1.16197 -0.111654,0.003 -0.171509,-4.09516 -0.133011,-9.10634 z"
         id="path836" />
      <path
         style="fill:#004475;fill-opacity:1;stroke-width:0.266022"
         d="m 149.99376,118.35104 c -0.0717,-3.08929 0.062,-4.47521 0.4717,-4.89276 0.63956,-0.65175 5.79928,-0.52391 7.01943,0.17392 1.12387,0.64277 1.67545,2.02957 1.42648,3.58652 -0.3374,2.11 -1.11773,2.47108 -6.01536,2.78344 l -2.85973,0.18239 z"
         id="path838" />
      <path
         style="fill:#004475;fill-opacity:1;stroke-width:0.266022"
         d="m 150.33485,105.64986 c -0.42926,-0.51722 -0.61637,-3.62512 -0.30385,-5.04687 0.38489,-1.751039 1.47219,-2.122817 4.13462,-1.413753 1.76553,0.470202 2.32057,0.844963 3.17489,2.143703 0.7713,1.17254 0.81814,2.71195 0.10416,3.42375 -0.61811,0.61623 -2.13812,1.01299 -4.48674,1.17114 -1.88927,0.12722 -2.32514,0.081 -2.62308,-0.27797 z"
         id="path840" />
      <path
         style="fill:#004475;fill-opacity:1;stroke-width:0.266022;filter:url(#filter848)"
         d="m 123.89861,112.99841 c -1.19012,-0.12443 -1.20979,0.0671 0.4894,-4.7671 1.31188,-3.73235 2.05041,-5.28486 2.61753,-5.50248 0.4848,-0.18603 0.52086,-0.13199 1.03532,1.5517 0.22353,0.73156 0.99876,3.03598 1.72274,5.12092 l 1.31632,3.79081 -3.09135,-0.0447 c -1.70024,-0.0246 -3.54072,-0.0917 -4.08996,-0.14913 z"
         id="path842" />
      <path
         style="fill:#004475;fill-opacity:1;stroke-width:0.266022"
         d="m 105.80877,218.91236 c -0.0576,-0.0576 -1.17323,-0.1672 -2.47914,-0.24352 -1.3059,-0.0763 -2.79335,-0.19186 -3.30545,-0.25675 -1.902531,-0.24109 -3.35477,-0.41645 -4.389355,-0.53005 -3.19336,-0.35062 -8.85467,-1.38966 -12.503023,-2.29472 -2.004104,-0.49716 -2.717069,-0.71021 -3.990327,-1.19237 -0.292624,-0.11081 -0.591898,-0.22185 -0.665054,-0.24674 -0.07316,-0.0249 -0.465339,-0.1831 -0.871519,-0.35156 -0.406178,-0.16846 -1.004727,-0.35962 -1.330109,-0.42479 -0.61679,-0.12354 -3.563471,-1.1053 -4.714938,-1.5709 -0.36578,-0.14791 -0.837293,-0.30164 -1.047807,-0.34163 -1.229746,-0.23359 -13.267245,-6.12357 -16.50963,-8.0782 -5.488212,-3.3085 -10.379788,-6.87377 -14.487705,-10.55948 -4.819106,-4.32381 -12.809173,-12.57867 -15.277862,-15.78416 -0.732427,-0.95103 -1.696956,-2.16268 -2.143398,-2.69256 -0.446441,-0.52988 -0.811712,-1.0513 -0.811712,-1.1587 0,-0.1074 -0.295059,-0.54594 -0.655687,-0.97452 -1.942366,-2.30837 -6.614761,-10.69601 -8.685298,-15.5914 -0.201122,-0.47551 -0.463228,-0.86457 -0.582459,-0.86457 -0.11923,0 -0.14791,-0.11144 -0.06373,-0.24764 0.08418,-0.1362 0.03479,-0.32072 -0.109737,-0.41005 -0.144533,-0.0893 -0.518502,-0.72607 -0.831043,-1.41499 -1.0992733,-2.42309 -2.0756134,-4.84388 -1.9536051,-4.84388 0.067831,0 -0.1209559,-0.47884 -0.419527,-1.06409 -0.2985711,-0.58525 -0.4659111,-1.06409 -0.3718662,-1.06409 0.094045,0 0.021965,-0.17956 -0.1601773,-0.39903 -0.1821422,-0.21947 -0.2419971,-0.39903 -0.1330109,-0.39903 0.1089862,0 0.066172,-0.15903 -0.095144,-0.35341 -0.1613154,-0.19437 -0.3466421,-0.64328 -0.4118374,-0.99758 -0.065195,-0.3543 -0.1365915,-0.64417 -0.1586586,-0.64417 -0.022067,0 -0.078818,-0.17957 -0.1261134,-0.39904 -0.047295,-0.21947 -0.2750442,-0.94627 -0.5061083,-1.61512 -0.2310641,-0.66885 -0.456019,-1.44697 -0.4998996,-1.72914 -0.043881,-0.28218 -0.1598554,-0.64115 -0.2577213,-0.79771 -0.097866,-0.15657 -0.2318423,-0.57555 -0.2977249,-0.93108 -0.065883,-0.35553 -0.2074486,-1.12525 -0.3145907,-1.7105 -0.1071419,-0.58525 -0.2777254,-1.1838 -0.3790744,-1.33011 -0.1013487,-0.14631 -0.1995594,-0.50544 -0.2182459,-0.79807 -0.034835,-0.5455 -0.3557078,-2.10523 -0.8209052,-3.99032 -0.3491126,-1.41469 -0.6650129,-3.22 -0.9309937,-5.32044 -0.055583,-0.43893 -0.1733346,-1.21705 -0.2616704,-1.72914 -0.4468385,-2.59037 -0.5057274,-4.39442 -0.4602315,-14.09915 0.041806,-8.91765 0.1299765,-11.071484 0.582616,-14.232168 0.5828057,-4.069609 1.4878349,-9.078831 1.754294,-9.709794 0.092682,-0.219468 0.201806,-0.684767 0.2424972,-1.034 0.040691,-0.349231 0.5557783,-2.144878 1.1446379,-3.990327 0.58886,-1.845446 1.1489284,-3.746906 1.244597,-4.225466 0.095668,-0.478557 0.2781904,-0.934534 0.4056044,-1.013282 0.1274141,-0.07874 0.2316619,-0.367126 0.2316619,-0.640849 0,-1.387508 7.4269684,-17.310744 8.6398524,-18.52363 0.225378,-0.225377 0.341758,-0.519836 0.258622,-0.654353 -0.08314,-0.134516 -0.04254,-0.244575 0.09021,-0.244575 0.132753,0 0.436295,-0.448912 0.674537,-0.997581 0.496943,-1.144455 1.942233,-3.732392 2.414192,-4.322854 0.175421,-0.219468 0.552438,-0.855601 0.837815,-1.413629 0.701027,-1.370792 3.081057,-4.510327 5.106668,-6.736286 2.647106,-2.908924 14.203945,-14.489783 15.626555,-15.659033 0.712063,-0.585248 1.842071,-1.551638 2.511131,-2.147532 1.454291,-1.295257 5.197728,-4.10398 5.469743,-4.10398 0.105895,0 0.628748,-0.34155 1.161895,-0.759 0.533145,-0.41745 1.507716,-1.045927 2.16571,-1.396615 0.657994,-0.350687 1.256543,-0.702673 1.330109,-0.78219 0.288112,-0.31142 5.607577,-3.204675 8.380431,-4.558113 6.888322,-3.362211 13.216083,-5.6706149 20.284159,-7.39978 0.475514,-0.1163319 0.864571,-0.1496064 0.864571,-0.073943 0,0.075663 0.16065,0.00424 0.357004,-0.1587179 0.19635,-0.1629578 0.432878,-0.2204118 0.525614,-0.1276756 0.09274,0.092736 0.332157,0.032881 0.532043,-0.1330109 0.199889,-0.1658922 0.413555,-0.2515012 0.474814,-0.1902422 0.06126,0.061259 1.067777,-0.1253048 2.236709,-0.4145864 2.528055,-0.6256318 3.320162,-0.7907994 3.854469,-0.8037224 0.219468,-0.00531 0.758162,-0.1162174 1.197098,-0.246465 3.123247,-0.9267765 11.965009,-1.5269383 20.658119,-1.402234 6.02442,0.086421 15.7963,1.0513081 16.96126,1.674774 0.26663,0.1426993 0.5483,0.1959424 0.62593,0.1183178 0.0776,-0.077625 0.66198,0.00433 1.29858,0.1821202 0.63659,0.1777906 1.47609,0.36306 1.86555,0.4117095 0.38945,0.04865 1.22742,0.2592675 1.86215,0.4680397 0.63472,0.2087721 1.57303,0.4735241 2.08512,0.5883378 1.26972,0.2846768 1.32083,0.2978105 1.39662,0.3589008 0.0667,0.053778 0.40639,0.1435095 1.39661,0.3689419 1.30377,0.2968151 3.74833,1.0565182 3.99033,1.2400879 0.14631,0.1109864 0.98428,0.4071245 1.86215,0.6580849 0.87787,0.2509604 1.71584,0.5490854 1.86215,0.6624998 0.14631,0.1134146 0.74486,0.3579639 1.33011,0.5434426 1.82118,0.5771757 4.63763,1.8671405 11.30593,5.1782575 6.21697,3.087008 10.7501,5.809413 13.70012,8.227694 0.73156,0.599698 1.44982,1.182001 1.59613,1.294007 0.14631,0.112006 0.57299,0.471135 0.94818,0.798065 0.37519,0.32693 1.33265,1.133112 2.12769,1.791516 3.315,2.745291 9.32045,8.638386 13.09641,12.8514 0.76184,0.850014 1.83651,2.014976 2.38816,2.588809 0.87648,0.911721 2.85949,3.458719 3.85052,4.945643 0.18213,0.273271 0.94196,1.39123 1.68851,2.484356 0.74654,1.093123 2.05349,3.193506 2.90432,4.667514 1.66516,2.884785 6.72613,12.931552 7.04517,13.985679 0.20939,0.69184 0.84429,2.245418 1.19374,2.921026 0.303,0.585793 1.64058,3.947678 1.72074,4.324918 0.0364,0.171419 0.14246,0.491235 0.23563,0.710703 0.87207,2.054282 3.20229,10.364453 2.97109,10.595658 -0.0633,0.06334 -0.0132,0.30892 0.11152,0.545728 0.19826,0.376588 0.31408,0.94937 0.67877,3.356801 0.0443,0.292624 0.26428,1.549576 0.48877,2.793228 0.65005,3.601206 1.01194,6.603522 1.22238,10.141135 0.24313,4.08719 0.0959,14.44243 -0.24884,17.50389 -0.14137,1.25533 -0.31817,2.82112 -0.3929,3.47952 -0.0747,0.65841 -0.26365,1.82841 -0.41984,2.60002 -0.15619,0.77161 -0.33052,1.72929 -0.3874,2.12818 -0.1283,0.89962 -0.32255,1.82631 -0.505,2.40914 -0.0765,0.24435 -0.19376,0.86327 -0.26057,1.37536 -0.46225,3.54273 -2.64615,10.803 -5.2813,17.55743 -1.20086,3.07804 -7.78371,16.31808 -8.77525,17.64961 -0.34359,0.4614 -1.29921,1.9163 -2.1236,3.2331 -3.17334,5.06881 -6.57184,9.15681 -12.71301,15.29228 -5.13277,5.128 -6.62772,6.52413 -9.31877,8.70275 -3.89431,3.15276 -10.88534,7.95685 -14.08309,9.6776 -0.6584,0.3543 -1.25695,0.71625 -1.33011,0.80433 -0.16869,0.20312 -6.65272,3.40713 -8.24667,4.075 -0.65841,0.27588 -1.85551,0.79205 -2.66022,1.14705 -2.12737,0.93849 -5.58646,2.18632 -5.58646,2.01525 0,-0.0808 -0.15903,-0.015 -0.3534,0.1463 -0.19438,0.16132 -0.58343,0.33724 -0.86457,0.39095 -0.28115,0.0537 -0.84816,0.23565 -1.26005,0.40433 -0.41188,0.16867 -0.90603,0.30668 -1.0981,0.30668 -0.19208,0 -0.75291,0.16866 -1.24629,0.37481 -0.49338,0.20615 -0.95691,0.36656 -1.03007,0.35646 -0.0731,-0.0101 -0.55199,0.1162 -1.06408,0.28066 -0.5121,0.16447 -1.23036,0.35873 -1.59614,0.43169 -0.36578,0.073 -1.92943,0.43335 -3.47478,0.80087 -4.05899,0.96529 -9.89328,1.93734 -14.48168,2.41277 -3.68729,0.38206 -13.79375,0.74689 -14.03404,0.50661 z m 34.07568,-81.91115 c 0.13721,-0.14631 0.33343,-1.08509 0.43605,-2.08618 l 0.18659,-1.82015 -24.03226,0.1619 c -26.029959,0.17536 -29.492563,0.27147 -30.610623,0.84964 -0.790481,0.40878 -1.167184,1.49035 -1.033896,2.96849 0.02469,0.27374 5.350006,0.32541 27.417659,0.26602 17.81804,-0.0479 27.47418,-0.16665 27.63648,-0.33972 z M 74.371468,123.4341 c 0.449048,-1.31681 1.487942,-4.36941 2.308654,-6.78356 2.199904,-6.47107 6.223313,-18.106185 6.567048,-18.990941 0.708916,-1.824718 0.767598,-0.718443 0.793543,14.960231 l 0.02216,13.39371 3.657799,-0.16236 c 2.01179,-0.0893 5.154172,-0.23167 6.983071,-0.31638 1.8289,-0.0847 4.342806,-0.33523 5.586457,-0.55673 1.24365,-0.22149 2.5933,-0.44801 2.99922,-0.50336 0.40592,-0.0554 0.88476,-0.22253 1.06408,-0.37149 0.17934,-0.14896 1.04965,-0.791 1.93404,-1.42677 0.88439,-0.63577 2.01824,-1.68306 2.51967,-2.32732 0.50143,-0.64426 1.14731,-1.3847 1.43529,-1.64544 1.75685,-1.59061 2.63704,-9.80949 1.46328,-13.66358 -0.94233,-3.09417 -2.93716,-5.976188 -5.36251,-7.747443 -1.9232,-1.404534 -3.1187,-1.917139 -5.48674,-2.352601 C 98.895507,94.57945 86.77659,94.066871 79.761561,94.047837 l -3.370227,-0.0091 -0.254561,1.130593 c -0.408602,1.814736 -3.045032,9.78617 -5.5071,16.65109 -0.582873,1.62521 -1.432309,3.23403 -1.707525,3.23403 -0.250385,0 -2.150685,-4.55377 -2.150685,-5.15378 0,-0.19895 -0.252266,-1.00616 -0.560593,-1.79381 -0.922547,-2.35675 -0.796575,-2.00051 -3.1824,-8.999443 -0.870143,-2.552614 -1.702592,-4.715595 -1.84988,-4.806625 -0.827674,-0.511528 -7.176172,-0.177479 -7.176172,0.377602 0,0.318644 3.263414,10.157196 7.943698,23.948696 1.337134,3.94016 2.431151,7.20508 2.431151,7.25538 0,0.0503 2.064994,0.0587 4.588876,0.0186 l 4.588875,-0.0728 z m 43.765522,1.84104 c 0.24861,-0.22499 0.71136,-1.2101 1.02834,-2.18914 0.69978,-2.16134 0.98533,-2.56718 1.98074,-2.81512 1.15233,-0.28703 10.34071,-0.22264 11.13146,0.078 0.51538,0.19595 1.00494,0.92376 1.97301,2.93322 l 1.28755,2.6726 5.18742,-0.12767 c 16.30001,-0.40118 18.95423,-0.60653 20.64486,-1.59731 1.22413,-0.71739 3.36557,-2.97118 4.02602,-4.23723 0.56018,-1.07387 0.76099,-4.61428 0.34583,-6.09711 -0.17812,-0.63619 -0.78338,-1.76384 -1.34502,-2.50589 -1.93051,-2.55064 -1.92832,-2.54541 -1.4838,-3.55334 1.61141,-3.65376 1.82852,-4.55303 1.67423,-6.93459 -0.13692,-2.11347 -0.22153,-2.393519 -0.97239,-3.21866 -1.015,-1.115411 -3.16212,-2.191004 -5.38183,-2.696014 -1.94729,-0.44303 -4.14621,-0.615375 -10.57871,-0.829123 -2.55352,-0.08485 -4.75102,-0.221187 -4.88335,-0.302964 -0.13769,-0.0851 -0.16341,0.202663 -0.0601,0.67284 0.24999,1.138175 0.28781,24.776371 0.0408,25.514681 -0.23955,0.7161 -0.57878,0.7738 -0.782,0.13301 -0.0812,-0.25604 -0.3527,-0.82466 -0.60332,-1.2636 -0.69079,-1.20984 -0.95124,-1.75984 -1.18809,-2.50901 -0.11881,-0.37579 -1.01031,-2.95774 -1.98113,-5.73767 -0.97082,-2.77992 -1.99357,-5.71281 -2.27277,-6.51753 -0.27922,-0.80471 -1.15555,-3.31862 -1.94741,-5.586456 l -1.43976,-4.123337 -5.61582,-0.0718 c -3.0887,-0.03949 -5.61581,-0.03263 -5.61581,0.01524 0,0.191065 -2.68335,8.072753 -2.91744,8.569243 -0.13796,0.29263 -0.43392,1.17592 -0.65769,1.96287 -0.22376,0.78696 -0.54309,1.595 -0.70962,1.79565 -0.16652,0.20065 -0.2347,0.36482 -0.1515,0.36482 0.19409,0 -3.4592,10.78703 -5.16572,15.25279 -0.71771,1.87815 -1.30493,3.46686 -1.30493,3.53047 0,0.0636 1.63934,0.0507 3.64298,-0.0286 2.74985,-0.10887 3.75379,-0.24452 4.09498,-0.5533 z M 139.92745,84.46191 V 82.067715 H 112.52721 85.126965 v 2.394195 2.394196 h 27.400245 27.40024 z"
         id="path880" />
    </g>
  </g>
</svg>
